# compile verilog/system verilog design source files

verilog xil_defaultlib  --include "../../../prj_LET_SDA/LET_SDA/LET_SDA.ip_user_files/ip/axi_fifo/sim/axi_fifo.v" \
"../../../prj_LET_SDA/LET_SDA/LET_SDA.ip_user_files/ip/packet_len_fifo/sim/packet_len_fifo.v" \
"../../../prj_LET_SDA/LET_SDA/LET_SDA.ip_user_files/ip/fifo_frames/sim/fifo_frames.v" \

verilog frame_decoding  --include "../../../hdl/fso_phy/imports" \
"../../../Creonic_LET_1G/testbench/phy_sim/gtwizard_fso_1g_bit_sync.v" \
"../../../Creonic_LET_1G/testbench/phy_sim/gtwizard_fso_1g_init.v" \
"../../../Creonic_LET_1G/testbench/phy_sim/gtwizard_fso_1g_reset_sync.v" \
"../../../Creonic_LET_1G/testbench/phy_sim/gtwizard_fso_1g_top.v" \
"../../../Creonic_LET_1G/testbench/phy_sim/gtwizard_fso_1g_wrapper.v" \

# compile glbl module
verilog ethernet_deframer_lib "glbl.v"

# Do not sort compile order
nosort
